Docs/3주차/project/simulation/qsim/Three.msim.vcd
$comment
	File created using the following command:
		vcd file Three.msim.vcd -direction
$end
$date
	Sun Sep 25 17:22:43 2022
$end
$version
	ModelSim Version 2020.1
$end
$timescale
	1ps
$end

$scope module newComparator_vlg_vec_tst $end
$var reg 1 ! A0 $end
$var reg 1 " A1 $end
$var reg 1 # A2 $end
$var reg 1 $ A3 $end
$var reg 1 % B0 $end
$var reg 1 & B1 $end
$var reg 1 ' B2 $end
$var reg 1 ( B3 $end
$var wire 1 ) Eq $end
$var wire 1 * Gt $end
$var wire 1 + Lt $end

$scope module i1 $end
$var wire 1 , gnd $end
$var wire 1 - vcc $end
$var wire 1 . unknown $end
$var tri1 1 / devclrn $end
$var tri1 1 0 devpor $end
$var tri1 1 1 devoe $end
$var wire 1 2 ~QUARTUS_CREATED_GND~I_combout $end
$var wire 1 3 A3~input_o $end
$var wire 1 4 A2~input_o $end
$var wire 1 5 A1~input_o $end
$var wire 1 6 B0~input_o $end
$var wire 1 7 B1~input_o $end
$var wire 1 8 A0~input_o $end
$var wire 1 9 inst2~0_combout $end
$var wire 1 : B2~input_o $end
$var wire 1 ; B3~input_o $end
$var wire 1 < inst2~1_combout $end
$var wire 1 = inst3~0_combout $end
$var wire 1 > inst4~combout $end
$var wire 1 ? inst3~1_combout $end
$var wire 1 @ inst3~2_combout $end
$upscope $end
$upscope $end
$enddefinitions $end
#0
$dumpvars
0!
0"
0#
0$
0%
0&
0'
0(
1)
0*
0+
0,
1-
x.
1/
10
11
02
03
04
05
06
07
08
09
0:
0;
0<
1=
0>
0?
0@
$end
#10000
1!
1%
18
16
#20000
0!
08
1?
1>
0)
1@
1+
#30000
1#
1(
0%
14
1;
06
0?
0>
0=
1)
1>
0)
#40000
1"
1&
0#
0(
15
17
04
0;
1=
0@
0+
0>
1)
#50000
1!
0&
1#
1(
18
07
14
1;
0=
1>
19
1@
1+
0)
#60000
0"
0!
0#
0(
05
08
04
0;
1=
09
0@
1<
1*
0+
0>
0<
0*
1)
#70000
1&
1!
17
18
1?
1>
0)
1@
1+
#80000
1$
0!
13
08
0=
0@
1<
1*
0+
#90000
1#
0$
14
03
#100000
0#
04
1=
1@
0<
0*
1+
#110000
1$
13
0=
0@
1<
1*
0+
#120000
1"
1(
1!
0$
15
1;
18
03
0?
19
1@
0<
0*
1+
#130000
0&
0"
0(
0!
07
05
0;
08
09
1=
0@
1<
1*
0+
0>
0<
0*
1)
#140000
1!
18
1>
19
0)
1<
1*
#160000
1"
15
#170000
0!
08
#190000
1(
0"
1;
05
0>
09
0=
1@
0<
0*
1+
1)
1>
0)
#200000
1#
14
#220000
1%
1$
0#
16
13
04
1=
1?
0@
0+
1@
1+
#230000
1'
1&
0(
1:
17
0;
0=
0@
1<
1*
0+
#240000
0%
0$
06
03
1@
0<
0*
1+
#250000
1!
1"
18
15
0?
19
#270000
1%
0!
0"
16
08
05
1?
09
#280000
0'
0&
0:
07
1=
#300000
1#
0%
14
06
0?
0>
0=
0@
1<
1*
0+
1)
1>
0)
#330000
1(
1"
1;
15
19
1@
0<
0*
1+
#340000
0#
04
#360000
1%
0(
16
0;
1=
0@
1<
1*
0+
#370000
0"
05
1?
09
0<
1@
1+
0*
#390000
0%
06
0?
0>
1)
0@
0+
