Docs/2주차/project/simulation/qsim/2ndWeek.msim.vcd
$comment
	File created using the following command:
		vcd file 2ndWeek.msim.vcd -direction
$end
$date
	Sun Sep 25 00:58:58 2022
$end
$version
	ModelSim Version 2020.1
$end
$timescale
	1ps
$end

$scope module practiceTwoByOne_vlg_vec_tst $end
$var reg 1 ! A $end
$var reg 1 " B $end
$var reg 1 # C $end
$var reg 1 $ D $end
$var wire 1 % result1 $end
$var wire 1 & result2 $end

$scope module i1 $end
$var wire 1 ' gnd $end
$var wire 1 ( vcc $end
$var wire 1 ) unknown $end
$var tri1 1 * devclrn $end
$var tri1 1 + devpor $end
$var tri1 1 , devoe $end
$var wire 1 - ~QUARTUS_CREATED_GND~I_combout $end
$var wire 1 . A~input_o $end
$var wire 1 / C~input_o $end
$var wire 1 0 D~input_o $end
$var wire 1 1 B~input_o $end
$var wire 1 2 inst4~0_combout $end
$upscope $end
$upscope $end
$enddefinitions $end
#0
$dumpvars
0!
0"
1#
1$
0%
0&
0'
1(
x)
1*
1+
1,
0-
0.
1/
10
01
12
$end
#10000
1!
0#
0$
1.
0/
00
02
1&
1%
#20000
0!
0.
12
0&
0%
#30000
1$
1!
10
1.
02
1&
1%
#40000
0!
0.
12
0&
0%
#50000
1"
1#
1!
11
1/
1.
02
1&
1%
#60000
0!
0.
#70000
0$
1!
00
1.
#80000
0!
0.
12
0&
0%
#90000
1$
1!
10
1.
02
1&
1%
#100000
0!
0.
#110000
1!
1.
#120000
0"
0$
0!
01
00
0.
12
0&
0%
#130000
1!
1.
02
1&
1%
#140000
1$
0!
10
0.
12
0&
0%
#150000
1!
1.
02
1&
1%
#160000
0!
0.
12
0&
0%
#170000
1!
1.
02
1&
1%
#180000
0#
0$
0!
0/
00
0.
12
0&
0%
#190000
1!
1.
02
1&
1%
#200000
1"
1$
0!
11
10
0.
12
0&
0%
#210000
1!
1.
02
1&
1%
#220000
0!
0.
12
0&
0%
#230000
1#
0$
1!
1/
00
1.
02
1&
1%
#240000
0!
0.
12
0&
0%
#250000
1$
1!
10
1.
02
1&
1%
#260000
0!
0.
#270000
0"
1!
01
1.
#280000
0!
0.
12
0&
0%
#290000
0$
1!
00
1.
02
1&
1%
#300000
0!
0.
12
0&
0%
#310000
1$
1!
10
1.
02
1&
1%
#320000
0!
0.
12
0&
0%
#330000
1!
1.
02
1&
1%
#340000
1"
0!
11
0.
#350000
0#
1!
0/
1.
#360000
0$
0!
00
0.
12
0&
0%
#390000
0"
01
